{
  "page":1,
  "results":[
     {
        "adult":false,
        "backdrop_path":"/sRvXNDItGlWCqtO3j6wks52FmbD.jpg",
        "genre_ids":[
           16,
           35,
           14,
           12,
           10751
        ],
        "id":808,
        "media_type":"movie",
        "original_language":"en",
        "original_title":"Shrek",
        "overview":"It ain't easy bein' green -- especially if you're a likable (albeit smelly) ogre named Shrek. On a mission to retrieve a gorgeous princess from the clutches of a fire-breathing dragon, Shrek teams up with an unlikely compatriot -- a wisecracking donkey.",
        "popularity":195.828,
        "poster_path":"/o04jZs5SXhbvhqO4981W7KJXOWZ.jpg",
        "release_date":"2001-05-18",
        "title":"Shrek",
        "video":false,
        "vote_average":7.7,
        "vote_count":14684
     },
     {
        "adult":false,
        "backdrop_path":"/2JoIysXRYYeveJghG1Br53LRoKF.jpg",
        "genre_ids":[
           16,
           10751,
           35,
           14,
           12
        ],
        "id":809,
        "media_type":"movie",
        "original_language":"en",
        "original_title":"Shrek 2",
        "overview":"Shrek, Fiona and Donkey set off to Far, Far Away to meet Fiona's mother and father. But not everyone is happy. Shrek and the King find it hard to get along, and there's tension in the marriage. The fairy godmother discovers that Shrek has married Fiona instead of her Son Prince Charming and sets about destroying their marriage.",
        "popularity":181.445,
        "poster_path":"/2yYP0PQjG8zVqturh1BAqu2Tixl.jpg",
        "release_date":"2004-05-19",
        "title":"Shrek 2",
        "video":false,
        "vote_average":7.2,
        "vote_count":10533
     },
     {
        "adult":false,
        "backdrop_path":"/gVl6aX2paJIHpMxAAe8X36VNExi.jpg",
        "genre_ids":[
           35,
           12,
           14,
           16,
           10751
        ],
        "id":10192,
        "media_type":"movie",
        "original_language":"en",
        "original_title":"Shrek Forever After",
        "overview":"A bored and domesticated Shrek pacts with deal-maker Rumpelstiltskin to get back to feeling like a real ogre again, but when he's duped and sent to a twisted version of Far Far Away—where Rumpelstiltskin is king, ogres are hunted, and he and Fiona have never met—he sets out to restore his world and reclaim his true love.",
        "popularity":135.088,
        "poster_path":"/pZS5WuDBh2eQmkjdtx40DQ2gvfC.jpg",
        "release_date":"2010-05-16",
        "title":"Shrek Forever After",
        "video":false,
        "vote_average":6.3,
        "vote_count":6283
     },
     {
        "adult":false,
        "backdrop_path":"/lxbKrBo1wZ2U9BS1jiZyNe3qI4J.jpg",
        "genre_ids":[
           14,
           12,
           16,
           35,
           10751
        ],
        "id":810,
        "media_type":"movie",
        "original_language":"en",
        "original_title":"Shrek the Third",
        "overview":"The King of Far Far Away has died and Shrek and Fiona are to become King & Queen. However, Shrek wants to return to his cozy swamp and live in peace and quiet, so when he finds out there is another heir to the throne, they set off to bring him back to rule the kingdom.",
        "popularity":123.459,
        "poster_path":"/1V5pspgnFCXXWd9DddHBVIF2275.jpg",
        "release_date":"2007-05-17",
        "title":"Shrek the Third",
        "video":false,
        "vote_average":6.3,
        "vote_count":7779
     },
     {
        "adult":false,
        "backdrop_path":"/c7kWXZq1HzoxmaspL4WKP0GrynN.jpg",
        "genre_ids":[
           16,
           10751,
           35,
           14
        ],
        "id":421892,
        "media_type":"movie",
        "original_language":"en",
        "original_title":"Shrek 5",
        "overview":"Plot unknown. A soft-reboot of the animated \"Shrek\" franchise.",
        "popularity":71.454,
        "poster_path":"/vOBhCpP2RapWbP6sa3QNuiC2oNx.jpg",
        "release_date":"2023-05-20",
        "title":"Shrek 5",
        "video":false,
        "vote_average":0,
        "vote_count":0
     },
     {
        "adult":false,
        "backdrop_path":"/vO1VJevJIKIXGfveYHsLPn8iHUn.jpg",
        "genre_ids":[
           12,
           16,
           35,
           14,
           10751
        ],
        "id":13394,
        "media_type":"movie",
        "original_language":"en",
        "original_title":"Shrek the Halls",
        "overview":"The Christmas tree isn't the only thing green in this new holiday classic. Shrek is back and trying to get into the spirit of the season. After promising Fiona and the kids a Christmas they'll remember, he is forced to take a crash course in the holiday. But just when he thinks he has everything for their quiet family Christmas just right, there is a knock at the door.",
        "popularity":36.676,
        "poster_path":"/kyCzpKpuF32nRl1QQgXqcQnnLAj.jpg",
        "release_date":"2007-11-28",
        "title":"Shrek the Halls",
        "video":false,
        "vote_average":6.3,
        "vote_count":688
     },
     {
        "adult":false,
        "backdrop_path":"/bF2KdequbcuOyR8ZKY52loVzKY1.jpg",
        "genre_ids":[
           16
        ],
        "id":118249,
        "media_type":"movie",
        "original_language":"en",
        "original_title":"Shrek: Thriller Night",
        "overview":"A Shrek parody of Michael Jackson's Thriller song and music video, with Donkey singing.",
        "popularity":15.294,
        "poster_path":"/mPQei2YUIY0Ljd3O5Wy7LDuvC8S.jpg",
        "release_date":"2011-09-13",
        "title":"Shrek: Thriller Night",
        "video":false,
        "vote_average":7.3,
        "vote_count":54
     },
     {
        "adult":false,
        "backdrop_path":"/zWDZckQzoHEE4oipgVNWXIFpXCH.jpg",
        "genre_ids":[
           10402,
           35,
           14
        ],
        "id":381696,
        "media_type":"movie",
        "original_language":"en",
        "original_title":"Shrek the Musical",
        "overview":"Shrek The Musical is a musical with music by Jeanine Tesori and book and lyrics by David Lindsay-Abaire. It is based on the 2001 DreamWorks Animation's film Shrek and William Steig's 1990 book Shrek! It was nominated for 8 Tony Awards including Best Musical.",
        "popularity":19.945,
        "poster_path":"/k3uIgE9obtdQnshufhzQlLKZW1Z.jpg",
        "release_date":"2013-09-17",
        "title":"Shrek the Musical",
        "video":false,
        "vote_average":7.2,
        "vote_count":96
     },
     {
        "adult":false,
        "backdrop_path":"/rzRthZa34uJUmnmvnepxxBSaRw0.jpg",
        "genre_ids":[
           10751
        ],
        "id":252634,
        "media_type":"movie",
        "original_language":"en",
        "original_title":"Shrek Stories",
        "overview":"Join Shrek and his friends from Far Far Away as they share tales of holiday cheer, spooky stories, a singing showdown and a night of babysitting nobody will soon forget.",
        "popularity":11.713,
        "poster_path":"/j1Ew14NWmwTYqGYNNS7YTWIJXae.jpg",
        "release_date":"2013-10-01",
        "title":"Shrek Stories",
        "video":true,
        "vote_average":8.3,
        "vote_count":22
     },
     {
        "adult":false,
        "backdrop_path":"/kk1Yk0mcIOXJ9yC6rQvkbRCKemo.jpg",
        "genre_ids":[
           35,
           10751,
           16
        ],
        "id":128914,
        "media_type":"movie",
        "original_language":"en",
        "original_title":"Shrek's Thrilling Tales",
        "overview":"SHREK'S THRILLING TALES is the ultimate Halloween DVD compilation for your family. Shrek's Thrilling Tales review Featuring the scariest, ugliest, and funniest characters from DreamWorks Animation's successful SHREK and MONSTERS VS. ALIENS franchises. DVD includes 'The Pig who Cried (Were)Wolf' and 'The Ghost of Lord Farquaad' from the Shrek movies, and 'Night of the Living Carrots' from Monsters vs. Aliens, featuring B.O.B.",
        "popularity":24.84,
        "poster_path":"/wH4zCbgNJxjnQAzJj48zitzsu3A.jpg",
        "release_date":"2012-08-28",
        "title":"Shrek's Thrilling Tales",
        "video":true,
        "vote_average":6.7,
        "vote_count":95
     },
     {
        "adult":false,
        "backdrop_path":"/tcHdogyWBZktk2JtO3oIqdJ24bW.jpg",
        "genre_ids":[
           16,
           35,
           10402,
           10751,
           10749
        ],
        "id":26840,
        "media_type":"movie",
        "original_language":"en",
        "original_title":"Shrek in the Swamp Karaoke Dance Party",
        "overview":"Shrek and his friends enjoy themselves with some Karaoke partying.",
        "popularity":11.366,
        "poster_path":"/lJg4alrYfp7CDNVID4iGefT9CIn.jpg",
        "release_date":"2001-11-02",
        "title":"Shrek in the Swamp Karaoke Dance Party",
        "video":false,
        "vote_average":6.2,
        "vote_count":94
     },
     {
        "adult":false,
        "backdrop_path":"/uzAgDIVftkbdtIseFVbPREVgQWB.jpg",
        "genre_ids":[
           16,
           10751,
           14,
           35
        ],
        "id":151316,
        "media_type":"movie",
        "original_language":"en",
        "original_title":"Shrek's Yule Log",
        "overview":"“Shrek’s Yule Log,” featuring over 25 uproarious character appearances in front of a crackling virtual fireplace.  This was bundled with \"Donkey's Christmas Shrektacular\"",
        "popularity":10.463,
        "poster_path":"/z9EENaDvmHDHXaNdhJYDBTvXuWo.jpg",
        "release_date":"2010-12-07",
        "title":"Shrek's Yule Log",
        "video":true,
        "vote_average":6.1,
        "vote_count":24
     },
     {
        "backdrop_path":"/aVg8OIWPo7kQ35JTXwpFDP3vWtn.jpg",
        "first_air_date":"2008-01-08",
        "genre_ids":[
           16,
           35,
           10751,
           10765
        ],
        "id":112814,
        "media_type":"tv",
        "name":"Shrek's Swamp Stories",
        "origin_country":[
           
        ],
        "original_language":"en",
        "original_name":"Shrek's Swamp Stories",
        "overview":"Shrek celebrates Halloween, Puss in Boots is captured by soldiers, and the gang participates in a kingdom-wide singing competition.",
        "popularity":7.443,
        "poster_path":"/cDYytfAv8pwPNRhv8KQU8rnBihS.jpg",
        "vote_average":8.3,
        "vote_count":6
     },
     {
        "backdrop_path":"/wrl9a00twtwRL8d2HVU1LU8QBdI.jpg",
        "first_air_date":"2021-02-02",
        "genre_ids":[
           16,
           10759,
           10765
        ],
        "id":157578,
        "media_type":"tv",
        "name":"Shrek Fights",
        "origin_country":[
           "GB"
        ],
        "original_language":"en",
        "original_name":"Shrek Fights",
        "overview":"Shrek Travels across the animation multiverse to fight different famous cartoon characters",
        "popularity":1.389,
        "poster_path":null,
        "vote_average":0,
        "vote_count":0
     },
     {
        "adult":false,
        "backdrop_path":null,
        "genre_ids":[
           99
        ],
        "id":726391,
        "media_type":"movie",
        "original_language":"en",
        "original_title":"Shrek: Once Upon a Time",
        "overview":"A making-of for the Shrek series.",
        "popularity":2.058,
        "poster_path":null,
        "release_date":"2011-12-30",
        "title":"Shrek: Once Upon a Time",
        "video":false,
        "vote_average":7.4,
        "vote_count":7
     },
     {
        "adult":false,
        "backdrop_path":null,
        "genre_ids":[
           
        ],
        "id":951495,
        "media_type":"movie",
        "original_language":"en",
        "original_title":"\"Vegeta\" (Shrek)",
        "overview":"By Jaden Pictures / YouTube  This animated movie spoof shows a story about a Saiyan named Vegeta, who lives alone his home, and enjoys his isolation, when 1 day, he meets another Saiyan named Goku (who he refers to as Kakarot), and then on the night he met Goku, a bunch of Non-Dragon Ball characters come to his property, because they were ordered by Simon Petrikov to go there, so Vegeta goes on a long adventure with Goku to see Simon, and get his home and isolation back.\r Later on, the adventure also becomes an adventure to rescue Princess Bubblegum from a castle guarded by Flame Princess, and bring her to Simon, so that he can marry her, and become king.\r Not to mention, Princess Bubblegum even has a secret that is to be revealed at some point in this animated movie spoof.",
        "popularity":0.6,
        "poster_path":null,
        "release_date":"",
        "title":"\"Vegeta\" (Shrek)",
        "video":false,
        "vote_average":0,
        "vote_count":0
     },
     {
        "adult":false,
        "gender":0,
        "id":2368738,
        "known_for":[
           {
              "adult":false,
              "genre_ids":[
                 
              ],
              "id":617643,
              "media_type":"movie",
              "original_language":"en",
              "original_title":"CIA Assassin: First Contract",
              "overview":"Paul Pounder (a.k.a. Agent 69) has seen better days. His age has caught up with him and he struggles to get work from the Agency. However, his string of bad luck is about to change. In the past three months, fifteen female C.I.A. agents have been found shot or dtabbed to death. Hidden video surveillance cameras captured Maizah Samar, an Arab who works for the Russians, in the act of fleeing the scenes at the same time as several agents had been killed.  C.I.A. Agen 0015 meets with Agent 69 to brief him on the murders. While thumbing through pictures of the dead women provided to him by 0015, Agent 69 discovers his fuck buddy, Agent 96, is one of the victims found shot to death. Looking at her bullet-riddled body, he recalls the wild sex and good times they had together. Shocked and grief stricken upon seeing the photos, Agent 69 is anxious to stop Maizah Samar. He accepts his First Contract, and so the story begins...",
              "poster_path":"/6fmRBhHq4oQ0WCkSvzYXKbRvoT0.jpg",
              "release_date":"2010-07-16",
              "title":"CIA Assassin: First Contract",
              "video":false,
              "vote_average":0,
              "vote_count":0
           }
        ],
        "known_for_department":"Acting",
        "media_type":"person",
        "name":"Mac Shrek",
        "popularity":0.6,
        "profile_path":null
     },
     {
        "adult":false,
        "backdrop_path":null,
        "genre_ids":[
           99,
           10770
        ],
        "id":575506,
        "media_type":"movie",
        "original_language":"en",
        "original_title":"Creating a Fairy Tale World: The Making of Shrek",
        "overview":"Behind-the-scenes look at the making of the DreamWorks Pictures animated feature, \"Shrek.\"",
        "popularity":2.26,
        "poster_path":"/65nYHT6wbfbrkUcAr5lxcPOdUCt.jpg",
        "release_date":"2001-04-22",
        "title":"Creating a Fairy Tale World: The Making of Shrek",
        "video":false,
        "vote_average":9.7,
        "vote_count":5
     },
     {
        "adult":false,
        "backdrop_path":"/9QXx4tS65s3oUBoQ27bMIwmBD9x.jpg",
        "genre_ids":[
           16,
           35,
           10751
        ],
        "id":48466,
        "media_type":"movie",
        "original_language":"en",
        "original_title":"Scared Shrekless",
        "overview":"Shrek challenges Donkey, Puss in Boots and his other fairy tale character friends to spend the night in Lord Farquaad's haunted castle, telling scary stories to see who can resist becoming scared and stay the longest.",
        "popularity":19.976,
        "poster_path":"/aAQQJhX8NqKZ7ZNDUPQQKi1wK8h.jpg",
        "release_date":"2010-10-28",
        "title":"Scared Shrekless",
        "video":false,
        "vote_average":6.5,
        "vote_count":339
     },
     {
        "adult":false,
        "backdrop_path":"/3GaNNflbidNujnTB9aCZw96vZib.jpg",
        "genre_ids":[
           14,
           16,
           18,
           35,
           878,
           10751
        ],
        "id":51256,
        "media_type":"movie",
        "original_language":"en",
        "original_title":"Donkey's Christmas Shrektacular",
        "overview":"Deck the halls with Donkey’s laughter in this all-new holiday collection. Donkey presents his very own carolling stage show featuring his Far Far Away pals in this merry, musical treat with all the trimmings! Join in the fun as they bring their own Shrektacular spirit to festive holiday songs, a fun Donkey Decoration scramble, and a hilarious virtual Yule Log that’s so funny… it’s on fire.",
        "popularity":14.347,
        "poster_path":"/iklnDuDaJwd61e8VUk4BquEGJwo.jpg",
        "release_date":"2010-12-07",
        "title":"Donkey's Christmas Shrektacular",
        "video":false,
        "vote_average":5.7,
        "vote_count":143
     }
  ],
  "total_pages":2,
  "total_results":29
}